Site,Sitename,SysSize
KH-001S,"PPSEZ - System 1, Phnom Penh,",63
KH-002X,"PPSEZ - System 2, Phnom Penh,",63
KH-003S,"Coca-Cola Cambodia, Phnom Penh,",2592
KH-003X,"Coca-Cola Cambodia, Phnom Penh,",2592
KH-004X,"Angkor Dairy, Phnom Penh,",466.56
KH-005X,"Sheico Phnom Penh, Phnom Penh,",858
KH-006X,"ISI Steel, Phnom Penh,",1001
